<?xml version="1.0" encoding="utf-8"?>
<!-- Generator: Adobe Illustrator 22.0.1, SVG Export Plug-In . SVG Version: 6.00 Build 0)  -->
<!DOCTYPE svg PUBLIC "-//W3C//DTD SVG 1.1//EN" "http://www.w3.org/Graphics/SVG/1.1/DTD/svg11.dtd" [
	<!ENTITY st0 "fill:#3F4549;">
	<!ENTITY st1 "enable-background:new    ;">
]>
<svg version="1.1" id="Camada_1" xmlns="http://www.w3.org/2000/svg" xmlns:xlink="http://www.w3.org/1999/xlink" x="0px" y="0px"
	 viewBox="0 0 298.4 189.7" style="enable-background:new 0 0 298.4 189.7;" xml:space="preserve">
<g transform="translate(-14539 -4900)">
	<g transform="matrix(0.974, 0.225, -0.225, 0.974, 518.983, 311.862)">
		<g transform="translate(13.786 -7.692) rotate(8)">
			<path style="&st0;" d="M15013.1-789.7c-0.1,0-0.2,0.1-0.4,0.1c-1.3,0-3,0-5.2,0.2c-0.5,0-1-0.4-1.1-0.9c0-0.5,0.4-1,0.9-1.1
				c2.2-0.2,4-0.2,5.3-0.2c0.6,0,1,0.4,1,1C15013.8-790.2,15013.5-789.8,15013.1-789.7z"/>
			<path style="&st0;" d="M14875.1-648.2c-0.2,0.1-0.3,0.1-0.5,0.1c-0.5-0.1-0.9-0.6-0.9-1.1c0.5-4,1.2-7.9,1.9-11.7
				c0.1-0.5,0.6-0.9,1.2-0.8c0.5,0.1,0.9,0.6,0.8,1.2c-0.7,3.8-1.3,7.7-1.8,11.7C14875.7-648.6,14875.5-648.3,14875.1-648.2z
				 M14879.4-671.5c-0.2,0.1-0.4,0.1-0.6,0c-0.5-0.1-0.9-0.7-0.7-1.2c0.9-3.9,1.9-7.8,3-11.5c0.2-0.5,0.7-0.8,1.2-0.7
				c0.5,0.2,0.8,0.7,0.7,1.2c-1.1,3.7-2.1,7.5-3,11.4C14879.9-671.9,14879.7-671.6,14879.4-671.5z M14886-694.3
				c-0.2,0.1-0.5,0.1-0.7,0c-0.5-0.2-0.8-0.8-0.6-1.3c1.3-3.8,2.8-7.5,4.4-11.1c0.2-0.5,0.8-0.7,1.3-0.5s0.7,0.8,0.5,1.3
				c-1.5,3.5-3,7.2-4.3,11C14886.5-694.6,14886.3-694.4,14886-694.3z M14895.4-716c-0.3,0.1-0.6,0.1-0.8,0c-0.5-0.3-0.7-0.9-0.4-1.3
				c1.8-3.6,3.8-7,5.9-10.4c0.3-0.5,0.9-0.6,1.4-0.3s0.6,0.9,0.3,1.4c-2,3.3-4,6.7-5.8,10.2
				C14895.8-716.2,14895.7-716.1,14895.4-716z M14907.9-736.1c-0.3,0.1-0.7,0.1-1-0.1c-0.4-0.3-0.5-1-0.2-1.4
				c2.4-3.2,4.9-6.3,7.5-9.3c0.4-0.4,1-0.5,1.4-0.1s0.5,1,0.1,1.4c-2.6,2.9-5.1,6-7.4,9.1
				C14908.3-736.3,14908.1-736.2,14907.9-736.1z M14923.7-753.8c-0.4,0.1-0.8,0.1-1.1-0.2c-0.4-0.4-0.4-1,0-1.4
				c2.9-2.7,5.9-5.3,9.1-7.8c0.4-0.3,1.1-0.3,1.4,0.2c0.3,0.4,0.3,1.1-0.2,1.4c-3.1,2.4-6.1,5-8.9,7.7
				C14923.9-753.9,14923.8-753.9,14923.7-753.8z M14997.6-788.5c-0.1,0-0.1,0-0.2,0.1c-3.9,0.5-7.7,1.2-11.6,2.1
				c-0.5,0.1-1.1-0.2-1.2-0.8c-0.1-0.5,0.2-1.1,0.8-1.2c3.9-0.9,7.8-1.6,11.8-2.1c0.5-0.1,1.1,0.3,1.1,0.9
				C14998.3-789.1,14998-788.7,14997.6-788.5z M14942.3-768.4c-0.4,0.2-0.9,0-1.2-0.4c-0.3-0.5-0.2-1.1,0.3-1.4
				c3.3-2.1,6.8-4.2,10.3-6c0.5-0.3,1.1-0.1,1.3,0.4c0.3,0.5,0.1,1.1-0.4,1.3c-3.5,1.8-6.9,3.8-10.2,5.9
				C14942.4-768.4,14942.4-768.4,14942.3-768.4z M14974.5-783.4C14974.4-783.4,14974.4-783.4,14974.5-783.4c-2.7,0.9-5.4,1.8-8,2.8
				l0,0c-1,0.4-2,0.8-3.1,1.2c-0.5,0.2-1.1,0-1.3-0.5s0-1.1,0.5-1.3c1-0.4,2.1-0.8,3.1-1.2l0,0c2.6-1,5.4-2,8.1-2.8
				c0.5-0.2,1.1,0.1,1.3,0.7C14975.2-784.1,14974.9-783.6,14974.5-783.4z"/>
			<g transform="translate(124.48)">
				<path style="&st0;" d="M14875.9-803.7L14875.9-803.7c-0.7,0.7-0.6,1.9,0.1,2.5l10.6,9.3c0.8,0.7,0.8,1.9,0.1,2.6l-10.1,9.9
					c-0.7,0.7-0.7,1.8,0,2.5l0,0c0.7,0.7,1.8,0.7,2.5,0l12.9-12.6c0.7-0.7,0.7-1.9-0.1-2.6l-13.5-11.9
					C14877.7-804.5,14876.6-804.4,14875.9-803.7z"/>
			</g>
		</g>
	</g>
	<g transform="matrix(0.995, -0.105, 0.105, 0.995, 367.015, 462.316)">
		<g style="&st1;">
			<path style="&st0;" d="M13620.4,6036.2c-0.1,0.6-0.6,0.9-1.1,0.8c-1-0.2-1.1-1.1-3.3-1.6s-4.6,1.5-5.3,4.6
				c-0.9,3.9,0.9,6.1,3,6.5c2.4,0.6,3.5-0.5,4.3-0.3c0.5,0.1,0.7,0.4,0.6,1.1c-0.3,1.1-2.4,2-5.3,1.4c-3.2-0.7-6-4-4.9-9
				s4.8-7.2,8.5-6.4C13618.7,6033.8,13620.7,6034.9,13620.4,6036.2z"/>
			<path style="&st0;" d="M13622.4,6039.5c0.9-4.1,1.3-5.8,2.4-5.6c0.5,0.1,0.9,0.4,0.7,1.6c-0.4,2.1-0.9,4.4-1.3,6.5
				c-0.6,2.6-1.1,4.7-1.8,7.2c-0.4,1.3-0.7,1.3-1.3,1.2c-0.5-0.1-0.8-0.5-0.6-1.6C13620.8,6046.8,13621.6,6043.2,13622.4,6039.5z"/>
			<path style="&st0;" d="M13626,6045.8c0.9-4.1,1.3-5.7,2.4-5.5c0.5,0.1,0.9,0.4,0.7,1.6c-0.3,1.5-0.5,3-0.9,4.4
				c-0.3,1.4-0.7,2.6-1.1,4c-0.4,1.3-0.7,1.3-1.3,1.2c-0.5-0.1-0.8-0.5-0.6-1.6C13625.4,6048.8,13625.7,6047.4,13626,6045.8z
				 M13630.3,6038c-0.2,0.7-1,1.1-1.7,0.9c-0.6-0.1-1.1-0.9-0.9-1.6c0.2-0.7,0.9-1.1,1.6-1
				C13630,6036.5,13630.5,6037.3,13630.3,6038z"/>
			<path style="&st0;" d="M13640.2,6044.8c-0.2,0.7-0.6,0.9-1.3,0.7c-0.7-0.2-1-0.7-2.8-1.1c-1.9-0.4-3.3,0.7-3.8,2.8
				c-0.5,2.3,0.2,4,2.1,4.4c2.4,0.6,3-0.4,3.7-0.2c0.5,0.1,0.8,0.4,0.7,1c-0.3,1.4-2.9,1.5-4.4,1.2c-3.5-0.8-5.1-3.3-4.3-6.8
				c0.7-3,3.2-5.2,6.9-4.4C13638.7,6042.8,13640.4,6043.8,13640.2,6044.8z"/>
			<path style="&st0;" d="M13642.6,6044.2c1.1-4.9,1.4-6,2.5-5.7c0.5,0.1,0.7,0.4,0.5,1.5c-0.2,1.4-1,4.9-1.6,7.6l-0.4,1.7l5.7-3.2
				c0.4-0.2,0.9-0.4,1.4-0.3c0.6,0.1,0.7,0.7,0.6,1.3c-0.1,0.3-0.2,0.6-0.6,0.7l-3.4,1.7l2.4,5.9c0.1,0.2,0.1,0.4,0.1,0.6
				c-0.1,0.6-0.7,0.8-1.3,0.7c-0.5-0.1-0.7-0.3-1-0.9l-2.2-5.4l-2.3,1.2c-0.3,1-0.5,1.9-0.7,2.4c-0.3,1-0.6,1.1-1.2,1
				c-0.7-0.2-0.8-0.4-0.6-1.4C13640.8,6052.3,13641.7,6048.3,13642.6,6044.2z"/>
			<path style="&st0;" d="M13659.9,6049.9c-0.3,0-0.7-0.1-1-0.2c-1-0.2-1.7-0.5-1.5-1.4c0.2-0.7,0.7-0.9,1.8-0.7
				c0.3,0.1,0.8,0.2,1.1,0.3c0.7-3,1-3.5,1.8-3.3c0.9,0.2,0.8,1.6,0.5,2.8c-0.1,0.4-0.2,0.7-0.2,1c0.4,0,0.9,0.1,1.3,0.2
				c1.1,0.2,1.6,0.7,1.4,1.4c-0.2,0.9-1.1,0.8-2.1,0.6c-0.3-0.1-0.7-0.2-1-0.3c-0.7,3-1.1,4.8-1.8,7.4c-0.4,1.3-0.7,1.3-1.3,1.2
				c-0.5-0.1-0.9-0.5-0.6-1.6C13658.6,6055.5,13659.1,6053,13659.9,6049.9z"/>
			<path style="&st0;" d="M13675.9,6057c-0.8,3.6-3.7,5.3-6.9,4.5c-3.5-0.8-4.7-3.8-4.1-6.8c0.7-3.2,3.5-5.1,6.9-4.3
				C13675.1,6051.2,13676.6,6053.7,13675.9,6057z M13673.6,6056.6c0.4-1.9-0.1-3.7-2.3-4.2s-3.7,0.8-4.2,2.9s0.3,3.8,2.4,4.2
				C13671.8,6060.1,13673.2,6058.5,13673.6,6056.6z"/>
			<path style="&st0;" d="M13690.9,6056.4c-0.1,0.4-0.4,0.7-0.9,0.6c-0.7-0.2-1.8-1-3.2-1.3c-1.2-0.3-2.1-0.1-2.3,0.7
				c-0.2,0.9,0.9,1.5,2.3,2.2c1.7,0.8,3.4,1.9,2.9,4.2c-0.5,2.1-2.4,3.1-5.5,2.4c-1.4-0.3-4-1.2-3.6-2.9c0.1-0.6,0.5-0.8,0.9-0.7
				c0.6,0.1,1,1.2,3,1.7c0.8,0.2,2.7,0.5,3-0.8c0.2-1-0.9-1.6-2.3-2.3c-1.6-0.9-3.3-1.8-2.9-3.9c0.4-2,2.5-3.1,5-2.5
				C13688.5,6053.9,13691.2,6054.9,13690.9,6056.4z"/>
			<path style="&st0;" d="M13694.6,6057.8c-0.3,0-0.7-0.1-1-0.2c-1-0.2-1.7-0.5-1.5-1.4c0.2-0.7,0.7-0.9,1.8-0.7
				c0.3,0.1,0.8,0.2,1.1,0.3c0.7-3,1-3.5,1.8-3.3c0.9,0.2,0.8,1.6,0.5,2.8c-0.1,0.4-0.2,0.7-0.2,1c0.4,0,0.9,0.1,1.3,0.2
				c1.1,0.2,1.6,0.7,1.4,1.4c-0.2,0.9-1.1,0.8-2.1,0.6c-0.3-0.1-0.7-0.2-1-0.3c-0.7,3-1.1,4.8-1.8,7.4c-0.4,1.3-0.7,1.3-1.3,1.2
				c-0.5-0.1-0.9-0.5-0.6-1.6C13693.3,6063.5,13693.9,6060.9,13694.6,6057.8z"/>
			<path style="&st0;" d="M13707.4,6068.6c-0.9,0.7-2.2,1.2-3.9,0.8c-2.2-0.5-4.6-2.3-3.7-6.5c0.7-3.3,3-5.6,6.3-4.8
				c1.5,0.3,2.5,1.1,3.1,2.5c0.2-0.7,0.4-1.5,1.4-1.3c0.4,0.1,0.8,0.4,0.6,1.6c-0.3,1.5-0.5,2.7-0.8,3.9c-0.4,1.6-0.7,2.8-1.1,4.2
				c-0.4,1.3-0.8,1.3-1.2,1.2C13707.2,6070.1,13707.3,6069.4,13707.4,6068.6z M13705.7,6060.2c-2.1-0.5-3.2,0.9-3.7,2.9
				c-0.6,2.5,0.3,4,2.2,4.4c2.2,0.5,3.5-0.9,4-3C13708.9,6061.6,13707,6060.5,13705.7,6060.2z"/>
			<path style="&st0;" d="M13712.9,6065.2c0.5-2,0.7-3.1,1.1-4c0.4-1.1,0.8-1.3,1.2-1.2c0.7,0.2,1.1,0.4,0.9,1.6c0,0,0,0.2-0.1,0.6
				c1-0.8,2.2-1.4,3.4-1.1c0.9,0.2,1.2,0.7,1,1.3c-0.2,1.1-1.2,1.1-2.4,1c-0.9,0-2,0.3-2.4,0.9c-0.2,1.1-0.1,0.8-0.3,1.7
				c-0.3,1.5-0.7,2.6-1.1,4.1c-0.4,1.3-0.9,1.3-1.3,1.2c-0.8-0.2-0.9-0.5-0.8-1.7C13712.2,6068.7,13712.5,6067.3,13712.9,6065.2z"/>
			<path style="&st0;" d="M13723.5,6064.4c-0.3,0-0.7-0.1-1-0.2c-1-0.2-1.7-0.5-1.5-1.4c0.2-0.7,0.7-0.9,1.8-0.7
				c0.3,0.1,0.8,0.2,1.1,0.3c0.7-3,1-3.5,1.8-3.3c0.9,0.2,0.8,1.6,0.5,2.8c-0.1,0.4-0.2,0.7-0.2,1c0.4,0,0.9,0.1,1.3,0.2
				c1.1,0.2,1.6,0.7,1.4,1.4c-0.2,0.9-1.1,0.8-2.1,0.6c-0.3-0.1-0.7-0.2-1-0.3c-0.7,3-1.1,4.8-1.8,7.4c-0.4,1.3-0.7,1.3-1.3,1.2
				c-0.5-0.1-0.9-0.5-0.6-1.6C13722.2,6070,13722.8,6067.5,13723.5,6064.4z"/>
		</g>
		<g style="&st1;">
			<path style="&st0;" d="M13628.4,6064.4c-0.1,0.4-0.4,0.7-0.9,0.6c-0.7-0.2-1.8-1-3.2-1.3c-1.2-0.3-2.1-0.1-2.3,0.7
				c-0.2,0.9,0.9,1.5,2.3,2.2c1.7,0.8,3.4,1.9,2.9,4.2c-0.5,2.1-2.4,3.1-5.5,2.4c-1.4-0.3-4-1.2-3.6-2.9c0.1-0.6,0.5-0.8,0.9-0.7
				c0.6,0.1,1,1.2,3,1.7c0.8,0.2,2.7,0.5,3-0.8c0.2-1-0.9-1.6-2.3-2.3c-1.6-0.9-3.3-1.8-2.9-3.9c0.5-2,2.5-3.1,5-2.5
				C13626.1,6061.9,13628.8,6062.9,13628.4,6064.4z"/>
			<path style="&st0;" d="M13628.4,6079.7c-0.6-0.1-1-0.6-0.8-1.8c0.3-1.5,0.7-4.3,1.2-6.3c1.5-6.7,3.9-8,7.5-7.2
				c2.9,0.7,4.9,2.9,4,7c-0.8,3.4-3.7,4.7-6.9,4c-1.3-0.3-2.4-1.3-2.7-2c-0.2,1.6-0.4,3-0.7,4.3
				C13629.8,6078.9,13629.5,6080,13628.4,6079.7z M13632.1,6069.3c-0.4,1.9-0.1,3.6,2,4.1c1.6,0.4,3.3-0.1,3.9-2.6
				c0.6-2.7-0.8-3.9-2.2-4.2C13633.7,6066.1,13632.5,6067.4,13632.1,6069.3z"/>
			<path style="&st0;" d="M13642.3,6071.8c0.9-4.1,1.3-5.7,2.4-5.5c0.5,0.1,0.9,0.4,0.7,1.6c-0.3,1.5-0.5,3-0.9,4.4
				c-0.3,1.4-0.7,2.6-1.1,4c-0.4,1.3-0.7,1.3-1.3,1.2c-0.5-0.1-0.8-0.5-0.6-1.6C13641.7,6074.8,13641.9,6073.4,13642.3,6071.8z
				 M13646.6,6064c-0.2,0.7-1,1.1-1.7,0.9c-0.6-0.1-1.1-0.9-0.9-1.6c0.2-0.7,0.9-1.1,1.6-1
				C13646.2,6062.5,13646.8,6063.3,13646.6,6064z"/>
			<path style="&st0;" d="M13649.9,6070.6c-0.3,1.2-1.2,5.1-1.7,6.8c-0.4,1.1-0.5,1.2-1.2,1s-0.8-0.3-0.7-1.4s0.7-3.7,1.1-5.5
				c0.3-1.5,0.6-2.3,0.8-3c0.4-1.2,0.7-1.3,1.2-1.2c0.7,0.2,1,0.6,0.8,1.5c1.3-0.7,2.7-1,3.9-0.7s2.2,1.1,2.5,2.5
				c0.2,0.9,0.2,1.8,0,2.9c-0.1,0.9-0.3,1.7-0.7,3.4c-0.4,1.8-0.7,3.3-1.9,3c-0.6-0.1-0.9-0.6-0.8-1.2c0-0.2,0.7-3,0.9-4.1
				c0.2-0.9,0.3-2.2,0.2-3.1c-0.2-1-0.8-1.3-1.5-1.5C13652,6070,13651.1,6070.2,13649.9,6070.6z"/>
			<path style="&st0;" d="M13661.9,6073.4c-0.3,1.2-1.2,5.1-1.7,6.8c-0.4,1.1-0.5,1.2-1.2,1s-0.8-0.3-0.7-1.4s0.7-3.7,1.1-5.5
				c0.3-1.5,0.6-2.3,0.8-3c0.4-1.2,0.7-1.3,1.2-1.2c0.7,0.2,1,0.6,0.8,1.5c1.3-0.7,2.7-1,3.9-0.7s2.2,1.1,2.5,2.5
				c0.2,0.9,0.2,1.8,0,2.9c-0.1,0.9-0.3,1.7-0.7,3.4c-0.4,1.8-0.7,3.3-1.9,3c-0.6-0.1-0.9-0.6-0.8-1.2c0-0.2,0.7-3,0.9-4.1
				c0.2-0.9,0.3-2.2,0.2-3.1c-0.2-1-0.8-1.3-1.5-1.5C13663.9,6072.7,13663.1,6072.9,13661.9,6073.4z"/>
			<path style="&st0;" d="M13671,6078.3c0.9-4.1,1.3-5.8,2.4-5.5c0.5,0.1,0.9,0.4,0.7,1.6c-0.3,1.5-0.5,3-0.9,4.4
				c-0.3,1.4-0.7,2.6-1.1,4c-0.4,1.3-0.7,1.3-1.3,1.2c-0.5-0.1-0.8-0.5-0.6-1.6C13670.4,6081.3,13670.7,6079.9,13671,6078.3z
				 M13675.3,6070.5c-0.2,0.7-1,1.1-1.7,0.9c-0.6-0.1-1.1-0.9-0.9-1.6c0.2-0.7,0.9-1.1,1.6-1
				C13675,6069.1,13675.5,6069.8,13675.3,6070.5z"/>
			<path style="&st0;" d="M13678.7,6077.2c-0.3,1.2-1.2,5.1-1.7,6.8c-0.4,1.1-0.5,1.2-1.2,1s-0.8-0.3-0.7-1.4s0.7-3.7,1.1-5.5
				c0.3-1.5,0.6-2.3,0.8-3c0.4-1.2,0.7-1.3,1.2-1.2c0.7,0.2,1,0.6,0.8,1.5c1.3-0.7,2.7-1,3.9-0.7s2.2,1.1,2.5,2.5
				c0.2,0.9,0.2,1.8,0,2.9c-0.1,0.9-0.3,1.7-0.7,3.4c-0.4,1.8-0.7,3.3-1.9,3c-0.6-0.1-0.9-0.6-0.8-1.2c0-0.1,0.7-3,0.9-4.1
				c0.2-0.9,0.3-2.2,0.2-3.1c-0.2-1-0.8-1.3-1.5-1.5C13680.7,6076.6,13679.9,6076.7,13678.7,6077.2z"/>
			<path style="&st0;" d="M13695,6086.6c-0.9,1.7-2.6,2-4.3,1.6c-2.6-0.6-4.5-2.5-3.7-6c0.8-3.4,3.4-5.3,6.9-4.5
				c1.9,0.4,2.7,1.4,3.2,2.5c0.8,1.6,0.8,3.5,0.2,6.2c-0.9,3.9-3,8.3-7.8,7.2c-0.8-0.2-2.2-0.6-3-1.3c-0.5-0.4-0.8-0.7-0.7-1.4
				c0.1-0.5,0.5-1,1.1-0.9s1.1,1.1,3.1,1.5C13692.8,6092,13694.3,6090.1,13695,6086.6z M13695.4,6083.4c0.3-1.4,0.1-3.2-2.2-3.7
				c-1.9-0.4-3.4,0.5-3.9,2.7c-0.5,2.1,0.4,3.5,2.1,3.9C13693.6,6086.8,13695,6085.2,13695.4,6083.4z"/>
		</g>
	</g>
</g>
</svg>
